<?xml version="1.0" encoding="UTF-8"?>
<svg width="130px" height="130px" viewBox="0 0 130 130" version="1.1" xmlns="http://www.w3.org/2000/svg" xmlns:xlink="http://www.w3.org/1999/xlink">
    <!-- Generator: Sketch 63.1 (92452) - https://sketch.com -->
    <title>img_s_non_sel_shadow@1x</title>
    <desc>Created with Sketch.</desc>
    <defs>
        <linearGradient x1="19.1444317%" y1="16.3117185%" x2="81.5288299%" y2="91.8428512%" id="linearGradient-1">
            <stop stop-color="#74BAAE" offset="0%"></stop>
            <stop stop-color="#427E74" offset="100%"></stop>
        </linearGradient>
    </defs>
    <g id="Page-1" stroke="none" stroke-width="1" fill="none" fill-rule="evenodd">
        <g id="Icons" transform="translate(-1901.000000, -836.000000)" fill="url(#linearGradient-1)" stroke="#FFFFFF" stroke-width="2">
            <rect id="img_s_non_sel_shadow" x="1902" y="837" width="128" height="128" rx="64"></rect>
        </g>
    </g>
</svg>